<svg xmlns="http://www.w3.org/2000/svg" width="60.824" height="43.32" viewBox="0 0 60.824 43.32">
  <g id="Component_22_1" data-name="Component 22 – 1" transform="translate(4 5.499)">
    <g id="Group_8" data-name="Group 8" transform="translate(1548.392 845.147) rotate(180)">
      <path id="Path_1" data-name="Path 1" d="M1521.988,845.147l-26.42-16.16,26.42-16.161" transform="translate(0 0)" fill="none" stroke="#fff" stroke-linecap="round" stroke-linejoin="round" stroke-width="8"/>
      <path id="Path_2" data-name="Path 2" d="M1495.568,839.246h52.824" transform="translate(0 -10.26)" fill="none" stroke="#fff" stroke-linecap="round" stroke-width="8"/>
    </g>
  </g>
</svg>
